parallel/simulation/qsim/parallel.msim.vcd
$comment
	File created using the following command:
		vcd file parallel.msim.vcd -direction
$end
$date
	Fri Jan 17 13:55:30 2025
$end
$version
	ModelSim Version 10.5b
$end
$timescale
	1ps
$end

$scope module parallel_vlg_vec_tst $end
$var reg 1 ! A0 $end
$var reg 1 " A1 $end
$var reg 1 # A2 $end
$var reg 1 $ A3 $end
$var reg 1 % A4 $end
$var reg 1 & A5 $end
$var reg 1 ' A6 $end
$var reg 1 ( A7 $end
$var reg 1 ) A8 $end
$var reg 1 * A9 $end
$var reg 1 + A10 $end
$var reg 1 , A11 $end
$var reg 1 - A12 $end
$var reg 1 . A13 $end
$var reg 1 / A14 $end
$var reg 1 0 A15 $end
$var reg 1 1 B0 $end
$var reg 1 2 B1 $end
$var reg 1 3 B2 $end
$var reg 1 4 B3 $end
$var reg 1 5 B4 $end
$var reg 1 6 B5 $end
$var reg 1 7 B6 $end
$var reg 1 8 B7 $end
$var reg 1 9 B8 $end
$var reg 1 : B9 $end
$var reg 1 ; B10 $end
$var reg 1 < B11 $end
$var reg 1 = B12 $end
$var reg 1 > B13 $end
$var reg 1 ? B14 $end
$var reg 1 @ B15 $end
$var reg 1 A C0 $end
$var reg 1 B M $end
$var reg 1 C S0 $end
$var reg 1 D S1 $end
$var reg 1 E S2 $end
$var reg 1 F S3 $end
$var wire 1 G CN16 $end
$var wire 1 H F0 $end
$var wire 1 I F1 $end
$var wire 1 J F2 $end
$var wire 1 K F3 $end
$var wire 1 L F4 $end
$var wire 1 M F5 $end
$var wire 1 N F6 $end
$var wire 1 O F7 $end
$var wire 1 P F8 $end
$var wire 1 Q F9 $end
$var wire 1 R F10 $end
$var wire 1 S F11 $end
$var wire 1 T F12 $end
$var wire 1 U F13 $end
$var wire 1 V F14 $end
$var wire 1 W F15 $end
$var wire 1 X G $end
$var wire 1 Y P $end

$scope module i1 $end
$var wire 1 Z gnd $end
$var wire 1 [ vcc $end
$var wire 1 \ unknown $end
$var tri1 1 ] devclrn $end
$var tri1 1 ^ devpor $end
$var tri1 1 _ devoe $end
$var wire 1 ` F0~output_o $end
$var wire 1 a F1~output_o $end
$var wire 1 b F2~output_o $end
$var wire 1 c F3~output_o $end
$var wire 1 d F4~output_o $end
$var wire 1 e F5~output_o $end
$var wire 1 f F6~output_o $end
$var wire 1 g F7~output_o $end
$var wire 1 h F8~output_o $end
$var wire 1 i F9~output_o $end
$var wire 1 j F10~output_o $end
$var wire 1 k F11~output_o $end
$var wire 1 l F12~output_o $end
$var wire 1 m F13~output_o $end
$var wire 1 n F14~output_o $end
$var wire 1 o F15~output_o $end
$var wire 1 p CN16~output_o $end
$var wire 1 q P~output_o $end
$var wire 1 r G~output_o $end
$var wire 1 s B0~input_o $end
$var wire 1 t A0~input_o $end
$var wire 1 u S0~input_o $end
$var wire 1 v S1~input_o $end
$var wire 1 w inst|43~0_combout $end
$var wire 1 x S2~input_o $end
$var wire 1 y S3~input_o $end
$var wire 1 z inst|46~0_combout $end
$var wire 1 { C0~input_o $end
$var wire 1 | M~input_o $end
$var wire 1 } inst|80~0_combout $end
$var wire 1 ~ A1~input_o $end
$var wire 1 !! B1~input_o $end
$var wire 1 "! inst|47~0_combout $end
$var wire 1 #! inst|82~0_combout $end
$var wire 1 $! inst|44~0_combout $end
$var wire 1 %! inst|81~combout $end
$var wire 1 &! B2~input_o $end
$var wire 1 '! A2~input_o $end
$var wire 1 (! inst|48~0_combout $end
$var wire 1 )! inst|82~1_combout $end
$var wire 1 *! inst|45~0_combout $end
$var wire 1 +! inst|82~2_combout $end
$var wire 1 ,! inst|77~0_combout $end
$var wire 1 -! A3~input_o $end
$var wire 1 .! B3~input_o $end
$var wire 1 /! inst|51~0_combout $end
$var wire 1 0! inst|52~0_combout $end
$var wire 1 1! inst|21~combout $end
$var wire 1 2! inst|77~1_combout $end
$var wire 1 3! B4~input_o $end
$var wire 1 4! A4~input_o $end
$var wire 1 5! inst2|46~0_combout $end
$var wire 1 6! inst|63~0_combout $end
$var wire 1 7! inst|63~1_combout $end
$var wire 1 8! inst|63~2_combout $end
$var wire 1 9! inst1|10~0_combout $end
$var wire 1 :! inst1|31~0_combout $end
$var wire 1 ;! inst2|43~0_combout $end
$var wire 1 <! inst2|80~combout $end
$var wire 1 =! B5~input_o $end
$var wire 1 >! A5~input_o $end
$var wire 1 ?! inst2|44~0_combout $end
$var wire 1 @! inst2|47~0_combout $end
$var wire 1 A! inst2|79~0_combout $end
$var wire 1 B! inst2|81~combout $end
$var wire 1 C! inst2|82~0_combout $end
$var wire 1 D! inst2|82~1_combout $end
$var wire 1 E! A6~input_o $end
$var wire 1 F! B6~input_o $end
$var wire 1 G! inst2|45~0_combout $end
$var wire 1 H! inst2|48~0_combout $end
$var wire 1 I! inst2|82~2_combout $end
$var wire 1 J! B7~input_o $end
$var wire 1 K! A7~input_o $end
$var wire 1 L! inst2|52~0_combout $end
$var wire 1 M! inst2|51~0_combout $end
$var wire 1 N! inst2|77~0_combout $end
$var wire 1 O! inst2|77~1_combout $end
$var wire 1 P! B8~input_o $end
$var wire 1 Q! A8~input_o $end
$var wire 1 R! inst3|43~0_combout $end
$var wire 1 S! inst3|46~0_combout $end
$var wire 1 T! inst2|63~0_combout $end
$var wire 1 U! inst2|63~1_combout $end
$var wire 1 V! inst2|60~0_combout $end
$var wire 1 W! inst1|29~0_combout $end
$var wire 1 X! inst3|80~combout $end
$var wire 1 Y! A9~input_o $end
$var wire 1 Z! B9~input_o $end
$var wire 1 [! inst3|44~0_combout $end
$var wire 1 \! inst3|79~0_combout $end
$var wire 1 ]! inst3|47~0_combout $end
$var wire 1 ^! inst3|81~combout $end
$var wire 1 _! A10~input_o $end
$var wire 1 `! B10~input_o $end
$var wire 1 a! inst3|48~0_combout $end
$var wire 1 b! inst3|45~0_combout $end
$var wire 1 c! inst3|82~0_combout $end
$var wire 1 d! inst3|82~1_combout $end
$var wire 1 e! inst3|82~2_combout $end
$var wire 1 f! inst3|77~0_combout $end
$var wire 1 g! A11~input_o $end
$var wire 1 h! B11~input_o $end
$var wire 1 i! inst3|52~0_combout $end
$var wire 1 j! inst3|51~0_combout $end
$var wire 1 k! inst3|77~1_combout $end
$var wire 1 l! A12~input_o $end
$var wire 1 m! B12~input_o $end
$var wire 1 n! inst4|46~0_combout $end
$var wire 1 o! inst3|63~0_combout $end
$var wire 1 p! inst3|63~1_combout $end
$var wire 1 q! inst3|60~0_combout $end
$var wire 1 r! inst1|27~0_combout $end
$var wire 1 s! inst4|43~0_combout $end
$var wire 1 t! inst4|80~combout $end
$var wire 1 u! inst4|79~combout $end
$var wire 1 v! B13~input_o $end
$var wire 1 w! A13~input_o $end
$var wire 1 x! inst4|47~0_combout $end
$var wire 1 y! inst4|44~0_combout $end
$var wire 1 z! inst4|81~combout $end
$var wire 1 {! inst4|82~0_combout $end
$var wire 1 |! inst4|82~1_combout $end
$var wire 1 }! B14~input_o $end
$var wire 1 ~! A14~input_o $end
$var wire 1 !" inst4|45~0_combout $end
$var wire 1 "" inst4|48~0_combout $end
$var wire 1 #" inst4|82~2_combout $end
$var wire 1 $" B15~input_o $end
$var wire 1 %" A15~input_o $end
$var wire 1 &" inst4|52~0_combout $end
$var wire 1 '" inst4|77~0_combout $end
$var wire 1 (" inst4|51~0_combout $end
$var wire 1 )" inst4|77~1_combout $end
$var wire 1 *" inst4|61~0_combout $end
$var wire 1 +" inst4|63~0_combout $end
$var wire 1 ," inst4|63~1_combout $end
$var wire 1 -" inst4|78~combout $end
$var wire 1 ." inst1|10~1_combout $end
$var wire 1 /" inst1|24~0_combout $end
$var wire 1 0" inst1|24~1_combout $end
$upscope $end
$upscope $end
$enddefinitions $end
#0
$dumpvars
0!
0"
0#
0$
0%
0&
0'
0(
0)
0*
0+
0,
0-
0.
0/
00
01
02
03
04
05
06
07
08
09
0:
0;
0<
0=
0>
0?
0@
0A
0B
1C
0D
0E
1F
xG
xH
xI
xJ
xK
xL
xM
xN
xO
xP
xQ
xR
xS
xT
xU
xV
xW
xX
xY
0Z
1[
x\
1]
1^
1_
x`
xa
xb
xc
xd
xe
xf
xg
xh
xi
xj
xk
xl
xm
xn
xo
xp
xq
xr
0s
0t
1u
0v
xw
0x
1y
xz
0{
0|
x}
0~
0!!
x"!
x#!
x$!
x%!
0&!
0'!
x(!
x)!
x*!
x+!
x,!
0-!
0.!
x/!
x0!
x1!
x2!
03!
04!
x5!
x6!
x7!
x8!
x9!
x:!
x;!
x<!
0=!
0>!
x?!
x@!
xA!
xB!
xC!
xD!
0E!
0F!
xG!
xH!
xI!
0J!
0K!
xL!
xM!
xN!
xO!
0P!
0Q!
xR!
xS!
xT!
xU!
xV!
xW!
xX!
0Y!
0Z!
x[!
x\!
x]!
x^!
0_!
0`!
xa!
xb!
xc!
xd!
xe!
xf!
0g!
0h!
xi!
xj!
xk!
0l!
0m!
xn!
xo!
xp!
xq!
xr!
xs!
xt!
xu!
0v!
0w!
xx!
xy!
xz!
x{!
x|!
0}!
0~!
x!"
x""
x#"
0$"
0%"
x&"
x'"
x("
x)"
x*"
x+"
x,"
x-"
x."
x/"
x0"
$end
#1471
0]!
#4050
0S!
#4052
00!
#4122
0n!
#4165
0z
#4174
0"!
#4182
0""
#4215
0a!
#4307
0&"
#4352
0H!
#4370
0i!
#4385
0@!
#4389
0L!
#4495
0(!
#4510
0b!
#4512
0[!
#4515
0R!
#4541
0x!
#4550
0w
#4553
0$!
0/!
#4557
0G!
#4558
0M!
#4560
0?!
#4713
01!
#4847
0c!
#4871
0*!
#4935
05!
#4955
0o!
#4967
0;!
#4972
1p!
#4991
1q!
#5002
0s!
#5003
0y!
#5017
0("
#5074
0j!
#5169
17!
#5187
0D!
#5262
0d!
#5297
0f!
#5299
0!"
#5305
19!
#5309
0,!
#5332
0T!
#5348
1U!
0N!
#5482
16!
#5567
1\!
#5585
0C!
#5586
18!
#5719
0{!
#5727
1*"
#5761
0O!
#5842
1,"
#5881
0e!
#5891
0#!
#5942
0)!
#5971
0I!
#5998
1V!
#6005
1+"
#6073
1A!
#6097
0}
#6104
0k!
#6119
02!
#6135
1^!
#6207
1u!
#6261
0'"
#6415
1-"
#6491
1B!
0W!
#6499
0|!
#6622
00"
#6683
1%!
#6726
0+!
#6961
1z!
#6981
0:!
#7064
0)"
#7247
0/"
#7323
0#"
#7395
0r!
#7741
0."
#7843
0<!
#8240
0t!
#8352
0X!
#10107
0j
0R
#10148
0f
0N
#10359
0i
0Q
#10431
0g
0O
#10433
0c
0K
#10733
1`
1H
#10840
0k
0S
#11151
0e
0M
#11241
0a
0I
#11429
0r
0X
#11674
0o
0W
#11834
1p
1G
#11918
0n
0V
#11971
0m
0U
#12183
0q
0Y
#12495
0h
0P
#13007
0l
0T
#13305
0b
0J
#13504
0d
0L
#500000
1!
11
1A
#500764
1s
1t
#500766
1{
#504622
1z
#504738
1}
#504896
1w
#505043
09!
#505643
0}
#506303
1#!
#506324
1."
#506521
1}
#507082
0%!
#510965
1q
1Y
#511405
0`
0H
#511446
1a
1I
#1000000
1"
12
0!
01
#1000766
1!!
1~
#1000811
0s
0t
#1004730
1"!
#1004767
1$!
#1004976
0z
#1005183
0w
#1005348
07!
#1005596
0#!
#1005982
0}
#1006201
1)!
#1006388
1%!
#1006720
1}
#1007023
1+!
#1010946
0a
0I
#1013717
1b
1J
#1500000
1#
13
0"
02
#1500764
1&!
1'!
#1500812
0!!
0~
#1504986
0"!
#1505264
1(!
#1505311
0$!
#1505324
1*!
#1505463
17!
#1505759
1,!
#1506330
0)!
#1506526
12!
#1507114
0+!
#1511039
1c
1K
#1513693
0b
0J
#2000000
1$
14
0#
03
#2000764
1.!
#2000766
1-!
#2000811
0&!
0'!
#2005020
1/!
#2005238
11!
#2005306
0(!
#2005399
10!
#2005682
0*!
#2005770
06!
#2005804
02!
#2006068
0,!
#2006204
12!
#2006352
08!
#2006878
02!
#2007701
1:!
#2008523
1<!
#2011192
0c
0K
#2014240
1d
1L
#2500000
1%
15
0$
04
#2500764
13!
14!
#2500811
0.!
#2500812
0-!
#2504864
00!
#2505231
0/!
#2505292
1;!
#2505456
15!
#2505524
01!
#2505650
16!
19!
#2505653
12!
#2505766
18!
#2505891
1C!
#2505956
02!
#2506444
0A!
#2506575
0V!
#2506825
0:!
#2506858
0B!
#2506995
0."
#2507575
1."
#2507687
0<!
#2511327
1e
1M
#2513348
0d
0L
#3000000
1&
16
0%
05
#3000766
1=!
1>!
#3000811
03!
04!
#3004819
1?!
#3005393
1@!
#3005423
1D!
#3005594
1T!
#3005746
05!
#3005778
0;!
#3005872
1B!
#3006186
1I!
#3006583
0B!
#3006884
1A!
#3007302
1B!
#3010503
1f
1N
#3011962
0e
0M
#3500000
1'
17
0&
06
#3500764
1F!
1E!
#3500812
0=!
0>!
#3504981
1G!
#3505134
1H!
#3505197
0@!
#3505628
0?!
#3505797
1N!
#3506038
0C!
#3506214
1O!
#3506255
0D!
#3507039
0I!
#3511106
1g
1O
#3511216
0f
0N
#4000000
1(
18
0'
07
#4000764
1J!
1K!
#4000811
0F!
0E!
#4004940
1M!
#4005212
1L!
#4005297
0H!
#4005504
0O!
#4005602
0G!
#4005713
0U!
#4005755
0N!
#4005775
1I!
#4005985
1O!
#4006119
0T!
#4006168
0O!
#4006392
0I!
#4006828
1W!
#4006830
1/"
#4008798
1X!
#4010838
0g
0O
#4013082
1h
1P
#4500000
1)
19
0(
08
#4500766
1P!
1Q!
#4500811
0J!
0K!
#4504830
1S!
#4505006
1R!
#4505200
0L!
#4505255
0q!
#4505427
0M!
#4505663
1U!
#4505665
1V!
#4506095
0\!
#4506679
0^!
#4506698
0."
#4506806
0W!
#4506808
0/"
#4507192
1."
#4507378
1/"
#4508667
0X!
#4510767
1i
1Q
#4512810
0h
0P
#5000000
1*
1:
0)
09
#5000766
1Z!
1Y!
#5000812
0P!
0Q!
#5002162
1[!
#5002185
1]!
#5002756
1o!
#5003411
1c!
#5003829
1d!
#5004499
1e!
#5004862
0S!
#5005207
0R!
#5006105
1\!
#5006673
1^!
#5008961
1j
1R
#5010897
0i
0Q
#5500000
1+
1;
0*
0:
#5500766
1`!
1_!
#5500812
0Z!
0Y!
#5502307
0]!
#5502642
0[!
#5502946
0^!
#5503078
0o!
#5503122
1q!
#5503324
0c!
#5503620
1^!
#5503739
0d!
#5504358
0e!
#5504796
1a!
#5504919
1b!
#5505155
0."
#5505378
0/"
#5505574
1o!
#5505589
0q!
#5505732
1f!
#5506496
1k!
#5507526
1."
#5507712
1/"
#5508584
0j
0R
#5511444
1k
1S
#6000000
1,
1<
0+
0;
#6000764
1g!
#6000766
1h!
#6000812
0`!
0_!
#6004753
1j!
#6004811
0a!
#6005231
0b!
#6005278
1i!
#6005314
0k!
#6005573
0f!
#6005634
0o!
#6005655
1e!
#6005848
0p!
#6006018
0e!
#6008112
1r!
#6008913
1t!
#6010050
0k
0S
#6013892
1l
1T
#6500000
1-
1=
0,
0<
#6500764
1m!
1l!
#6500811
0g!
#6500812
0h!
#6504929
1s!
#6505174
1n!
#6505181
0i!
#6505798
1p!
#6505802
1q!
#6505886
0j!
#6506010
1k!
#6506158
0u!
#6506223
0*"
#6506480
0k!
#6506952
0z!
#6507481
0r!
#6508058
0/"
#6508326
0t!
#6511780
1m
1U
#6513093
0l
0T
#7000000
1.
1>
0-
0=
#7000764
1v!
1w!
#7000811
0m!
0l!
#7005082
0n!
#7005101
1y!
#7005436
1x!
#7005545
0s!
#7006119
0+"
#7006123
1*"
#7006139
1z!
#7006443
1u!
#7006648
0*"
#7006652
0z!
#7006658
1{!
#7007197
1z!
#7007412
1|!
#7008187
1#"
#7012207
0m
0U
#7013032
1n
1V
#7500000
1/
1?
0.
0>
#7500764
1}!
1~!
#7500811
0v!
0w!
#7504916
1!"
#7505352
0x!
#7505500
1""
#7505773
0y!
#7505937
1'"
#7506295
0#"
#7506530
0{!
#7506533
0z!
#7506566
1#"
#7506712
1)"
#7506773
1z!
#7507310
0|!
#7508134
0#"
#7511560
1o
1W
#7512729
0n
0V
#8000000
10
1@
0/
0?
#8000764
1$"
1%"
#8000811
0}!
0~!
#8004857
1("
#8004993
0""
#8005150
1&"
#8005660
0,"
#8006027
1#"
#8006110
0!"
#8006255
0-"
#8006308
0'"
#8006394
1+"
#8006455
10"
#8007111
0)"
#8007455
0#"
#8011467
0p
0G
#8011481
1r
1X
#8011721
0o
0W
#8500000
00
0@
#8500811
0$"
0%"
#8505118
0&"
#8505635
0("
#8505921
1*"
#8505943
1,"
#8505944
1)"
#8506446
0)"
#8506516
1-"
#8506723
00"
#8507935
0."
#8511530
0r
0X
#8511935
1p
1G
#8512377
0q
0Y
