serial/simulation/qsim/serial.msim.vcd
$comment
	File created using the following command:
		vcd file serial.msim.vcd -direction
$end
$date
	Fri Jan 17 14:31:54 2025
$end
$version
	ModelSim Version 10.5b
$end
$timescale
	1ps
$end

$scope module serial_vlg_vec_tst $end
$var reg 1 ! A0 $end
$var reg 1 " A1 $end
$var reg 1 # A2 $end
$var reg 1 $ A3 $end
$var reg 1 % A4 $end
$var reg 1 & A5 $end
$var reg 1 ' A6 $end
$var reg 1 ( A7 $end
$var reg 1 ) A8 $end
$var reg 1 * A9 $end
$var reg 1 + A10 $end
$var reg 1 , A11 $end
$var reg 1 - A12 $end
$var reg 1 . A13 $end
$var reg 1 / A14 $end
$var reg 1 0 A15 $end
$var reg 1 1 B0 $end
$var reg 1 2 B1 $end
$var reg 1 3 B2 $end
$var reg 1 4 B3 $end
$var reg 1 5 B4 $end
$var reg 1 6 B5 $end
$var reg 1 7 B6 $end
$var reg 1 8 B7 $end
$var reg 1 9 B8 $end
$var reg 1 : B9 $end
$var reg 1 ; B10 $end
$var reg 1 < B11 $end
$var reg 1 = B12 $end
$var reg 1 > B13 $end
$var reg 1 ? B14 $end
$var reg 1 @ B15 $end
$var reg 1 A C0 $end
$var reg 1 B M $end
$var reg 1 C S0 $end
$var reg 1 D S1 $end
$var reg 1 E S2 $end
$var reg 1 F S3 $end
$var wire 1 G CN16 $end
$var wire 1 H F0 $end
$var wire 1 I F1 $end
$var wire 1 J F2 $end
$var wire 1 K F3 $end
$var wire 1 L F4 $end
$var wire 1 M F5 $end
$var wire 1 N F6 $end
$var wire 1 O F7 $end
$var wire 1 P F8 $end
$var wire 1 Q F9 $end
$var wire 1 R F10 $end
$var wire 1 S F11 $end
$var wire 1 T F12 $end
$var wire 1 U F13 $end
$var wire 1 V F14 $end
$var wire 1 W F15 $end

$scope module i1 $end
$var wire 1 X gnd $end
$var wire 1 Y vcc $end
$var wire 1 Z unknown $end
$var tri1 1 [ devclrn $end
$var tri1 1 \ devpor $end
$var tri1 1 ] devoe $end
$var wire 1 ^ F0~output_o $end
$var wire 1 _ F1~output_o $end
$var wire 1 ` F2~output_o $end
$var wire 1 a F3~output_o $end
$var wire 1 b F4~output_o $end
$var wire 1 c F5~output_o $end
$var wire 1 d F6~output_o $end
$var wire 1 e F7~output_o $end
$var wire 1 f F8~output_o $end
$var wire 1 g F9~output_o $end
$var wire 1 h F10~output_o $end
$var wire 1 i F11~output_o $end
$var wire 1 j F12~output_o $end
$var wire 1 k F13~output_o $end
$var wire 1 l F14~output_o $end
$var wire 1 m F15~output_o $end
$var wire 1 n CN16~output_o $end
$var wire 1 o S1~input_o $end
$var wire 1 p A0~input_o $end
$var wire 1 q S0~input_o $end
$var wire 1 r B0~input_o $end
$var wire 1 s inst|43~0_combout $end
$var wire 1 t S3~input_o $end
$var wire 1 u S2~input_o $end
$var wire 1 v inst|46~0_combout $end
$var wire 1 w M~input_o $end
$var wire 1 x C0~input_o $end
$var wire 1 y inst|80~0_combout $end
$var wire 1 z inst|79~0_combout $end
$var wire 1 { A1~input_o $end
$var wire 1 | B1~input_o $end
$var wire 1 } inst|44~0_combout $end
$var wire 1 ~ inst|47~0_combout $end
$var wire 1 !! inst|81~combout $end
$var wire 1 "! inst|82~3_combout $end
$var wire 1 #! inst|82~5_combout $end
$var wire 1 $! A2~input_o $end
$var wire 1 %! B2~input_o $end
$var wire 1 &! inst|45~0_combout $end
$var wire 1 '! inst|48~0_combout $end
$var wire 1 (! inst|82~4_combout $end
$var wire 1 )! B3~input_o $end
$var wire 1 *! A3~input_o $end
$var wire 1 +! inst|51~0_combout $end
$var wire 1 ,! inst|82~2_combout $end
$var wire 1 -! inst|77~0_combout $end
$var wire 1 .! inst|52~0_combout $end
$var wire 1 /! inst|77~1_combout $end
$var wire 1 0! inst|78~0_combout $end
$var wire 1 1! B4~input_o $end
$var wire 1 2! A4~input_o $end
$var wire 1 3! inst1|43~0_combout $end
$var wire 1 4! inst1|46~0_combout $end
$var wire 1 5! inst1|80~combout $end
$var wire 1 6! inst1|79~0_combout $end
$var wire 1 7! A5~input_o $end
$var wire 1 8! B5~input_o $end
$var wire 1 9! inst1|47~0_combout $end
$var wire 1 :! inst1|44~0_combout $end
$var wire 1 ;! inst1|81~combout $end
$var wire 1 <! A6~input_o $end
$var wire 1 =! B6~input_o $end
$var wire 1 >! inst1|45~0_combout $end
$var wire 1 ?! inst1|82~0_combout $end
$var wire 1 @! inst1|82~1_combout $end
$var wire 1 A! inst1|48~0_combout $end
$var wire 1 B! inst1|82~2_combout $end
$var wire 1 C! A7~input_o $end
$var wire 1 D! B7~input_o $end
$var wire 1 E! inst1|51~0_combout $end
$var wire 1 F! inst1|52~0_combout $end
$var wire 1 G! inst1|77~0_combout $end
$var wire 1 H! inst1|77~1_combout $end
$var wire 1 I! A8~input_o $end
$var wire 1 J! B8~input_o $end
$var wire 1 K! inst2|46~0_combout $end
$var wire 1 L! inst1|78~0_combout $end
$var wire 1 M! inst2|43~0_combout $end
$var wire 1 N! inst2|80~combout $end
$var wire 1 O! inst2|79~0_combout $end
$var wire 1 P! B9~input_o $end
$var wire 1 Q! A9~input_o $end
$var wire 1 R! inst2|44~0_combout $end
$var wire 1 S! inst2|47~0_combout $end
$var wire 1 T! inst2|81~combout $end
$var wire 1 U! inst2|82~0_combout $end
$var wire 1 V! inst2|82~1_combout $end
$var wire 1 W! B10~input_o $end
$var wire 1 X! A10~input_o $end
$var wire 1 Y! inst2|48~0_combout $end
$var wire 1 Z! inst2|45~0_combout $end
$var wire 1 [! inst2|82~2_combout $end
$var wire 1 \! inst2|77~0_combout $end
$var wire 1 ]! B11~input_o $end
$var wire 1 ^! A11~input_o $end
$var wire 1 _! inst2|52~0_combout $end
$var wire 1 `! inst2|51~0_combout $end
$var wire 1 a! inst2|77~1_combout $end
$var wire 1 b! A12~input_o $end
$var wire 1 c! B12~input_o $end
$var wire 1 d! inst3|46~0_combout $end
$var wire 1 e! inst3|43~0_combout $end
$var wire 1 f! inst2|78~0_combout $end
$var wire 1 g! inst3|80~combout $end
$var wire 1 h! B13~input_o $end
$var wire 1 i! A13~input_o $end
$var wire 1 j! inst3|44~0_combout $end
$var wire 1 k! inst3|47~0_combout $end
$var wire 1 l! inst3|79~combout $end
$var wire 1 m! inst3|81~combout $end
$var wire 1 n! A14~input_o $end
$var wire 1 o! B14~input_o $end
$var wire 1 p! inst3|45~0_combout $end
$var wire 1 q! inst3|82~0_combout $end
$var wire 1 r! inst3|82~1_combout $end
$var wire 1 s! inst3|48~0_combout $end
$var wire 1 t! inst3|82~2_combout $end
$var wire 1 u! inst3|77~0_combout $end
$var wire 1 v! A15~input_o $end
$var wire 1 w! B15~input_o $end
$var wire 1 x! inst3|51~0_combout $end
$var wire 1 y! inst3|52~0_combout $end
$var wire 1 z! inst3|77~1_combout $end
$var wire 1 {! inst3|78~0_combout $end
$upscope $end
$upscope $end
$enddefinitions $end
#0
$dumpvars
1!
0"
0#
0$
0%
0&
0'
0(
0)
0*
0+
0,
0-
0.
0/
00
01
02
03
04
05
06
07
08
09
0:
0;
0<
0=
0>
0?
0@
1A
0B
1C
0D
0E
1F
xG
xH
xI
xJ
xK
xL
xM
xN
xO
xP
xQ
xR
xS
xT
xU
xV
xW
0X
1Y
xZ
1[
1\
1]
x^
x_
x`
xa
xb
xc
xd
xe
xf
xg
xh
xi
xj
xk
xl
xm
xn
0o
1p
1q
0r
xs
1t
0u
xv
0w
1x
xy
xz
0{
0|
x}
x~
x!!
x"!
x#!
0$!
0%!
x&!
x'!
x(!
0)!
0*!
x+!
x,!
x-!
x.!
x/!
x0!
01!
02!
x3!
x4!
x5!
x6!
07!
08!
x9!
x:!
x;!
0<!
0=!
x>!
x?!
x@!
xA!
xB!
0C!
0D!
xE!
xF!
xG!
xH!
0I!
0J!
xK!
xL!
xM!
xN!
xO!
0P!
0Q!
xR!
xS!
xT!
xU!
xV!
0W!
0X!
xY!
xZ!
x[!
x\!
0]!
0^!
x_!
x`!
xa!
0b!
0c!
xd!
xe!
xf!
xg!
0h!
0i!
xj!
xk!
xl!
xm!
0n!
0o!
xp!
xq!
xr!
xs!
xt!
xu!
0v!
0w!
xx!
xy!
xz!
x{!
$end
#1721
0S!
#3988
0~
#3996
0Y!
#4010
0K!
#4025
0'!
#4028
0.!
#4091
0d!
#4163
0k!
#4166
0A!
#4220
1s
#4427
0,!
#4430
0x!
#4431
0e!
#4490
0v
#4522
0y!
#4539
04!
#4572
0_!
#4591
0q!
#4599
0U!
#4657
0s!
#4664
0`!
#4683
0p!
#4718
09!
#4747
0j!
#4772
0:!
#4849
03!
#4869
0>!
#4908
0F!
#4928
0+!
#4933
0}
0&!
#5042
0R!
#5044
0E!
0M!
#5102
0"!
#5103
0z
#5147
0?!
#5243
1{!
#5256
0Z!
#5282
1l!
#5318
0y
#5381
0r!
#5456
1f!
#5484
16!
#5487
0u!
#5666
0V!
#5673
0G!
#5674
1O!
#5696
0-!
#5847
1m!
#5855
1L!
0\!
#5867
0#!
#5869
0g!
#5878
1!!
#5905
10!
#5935
0@!
#6248
1;!
#6304
0z!
#6439
1T!
#6491
0[!
#6643
0N!
#6674
0(!
#6690
05!
#6752
0B!
#6846
0/!
#7117
0H!
#7329
0a!
#7432
0t!
#9549
1n
1G
#9914
0j
0T
#10118
0_
0I
#10303
1^
1H
#10717
0a
0K
#10731
0c
0M
#10781
0m
0W
#10789
0f
0P
#10900
0k
0U
#11501
0e
0O
#11552
0b
0L
#11618
0i
0S
#11703
0d
0N
#11980
0h
0R
#12945
0`
0J
#13598
0g
0Q
#13779
0l
0V
#500000
11
#500766
1r
#504559
1v
#505141
1z
#505351
1y
#505913
0!!
#509995
1_
1I
#510543
0^
0H
#1000000
0!
1"
12
01
#1000764
1|
1{
#1000812
0r
0p
#1004563
1}
#1004740
0v
#1005186
0s
#1005298
1~
#1005327
1!!
#1005353
0z
#1005730
1,!
#1006005
1#!
#1006770
1(!
#1009567
0_
0I
#1013052
1`
1J
#1500000
1#
13
0"
02
#1500764
1%!
1$!
#1500811
0|
0{
#1504572
1&!
#1504615
1'!
#1504799
0~
#1505185
0}
#1505236
0!!
#1505238
0,!
#1505376
1-!
#1505539
0#!
#1505990
1!!
#1506346
0(!
#1506580
1/!
#1510615
1a
1K
#1512617
0`
0J
#2000000
1$
14
0#
03
#2000764
1)!
#2000766
1*!
#2000811
0%!
0$!
#2004643
1+!
#2004803
1.!
#2005071
0'!
#2005182
0&!
#2005652
00!
#2005814
0-!
#2006449
15!
#2006964
0/!
#2010835
0a
0K
#2011508
1b
1L
#2500000
1%
15
0$
04
#2500764
12!
#2500766
11!
#2500811
0)!
#2500812
0*!
#2504840
0.!
#2505043
13!
#2505093
14!
#2505236
0+!
#2505625
06!
#2505812
1/!
#2506114
10!
#2506431
0;!
#2506581
0/!
#2506899
05!
#2510725
1c
1M
#2511761
0b
0L
#3000000
1&
16
0%
05
#3000764
17!
#3000766
18!
#3000811
02!
#3000812
01!
#3005043
03!
#3005050
1:!
#3005258
04!
#3005389
19!
#3005634
1;!
#3005678
16!
#3005814
1?!
#3006568
1@!
#3007352
1B!
#3010117
0c
0M
#3012469
1d
1N
#3500000
1'
17
0&
06
#3500766
1=!
1<!
#3500811
07!
#3500812
08!
#3504642
1A!
#3504763
1>!
#3505046
0B!
#3505504
1G!
#3505529
09!
#3505535
1B!
#3505584
0:!
#3505958
0?!
#3506746
0@!
#3507039
1H!
#3507563
0B!
#3511620
1e
1O
#3512514
0d
0N
#4000000
1(
18
0'
07
#4000764
1D!
1C!
#4000812
0=!
0<!
#4004855
0>!
#4004978
0A!
#4005291
1F!
#4005327
1E!
#4005659
0G!
#4006109
0L!
#4006917
1N!
#4007103
0H!
#4011225
1f
1P
#4011487
0e
0O
#4500000
1)
19
0(
08
#4500764
1J!
1I!
#4500811
0D!
0C!
#4504284
1M!
#4504863
0O!
#4504865
0N!
#4505170
1K!
#4505670
0T!
#4505719
0F!
#4505754
0E!
#4506515
1N!
#4506537
1L!
#4507325
0N!
#4509011
0f
0P
#4512643
1g
1Q
#5000000
1*
1:
0)
09
#5000766
1P!
1Q!
#5000811
0J!
0I!
#5002407
1R!
#5002677
1S!
#5003159
1U!
#5004397
1V!
#5004821
0K!
#5005062
0M!
#5005172
1[!
#5005692
1O!
#5006457
1T!
#5010927
1h
1R
#5013616
0g
0Q
#5500000
1+
1;
0*
0:
#5500764
1X!
#5500766
1W!
#5500812
0P!
0Q!
#5502533
0S!
#5502904
0R!
#5503132
0T!
#5503334
0U!
#5503731
1T!
#5504515
0V!
#5504596
1Z!
#5504963
1Y!
#5505709
1\!
#5505751
0[!
#5507291
1a!
#5511240
0h
0R
#5511717
1i
1S
#6000000
1,
1<
0+
0;
#6000764
1]!
1^!
#6000811
0X!
#6000812
0W!
#6004254
1`!
#6004657
0a!
#6004807
0Y!
#6005021
0Z!
#6005031
0f!
#6005192
1_!
#6005493
1g!
#6005543
0\!
#6005975
1a!
#6007017
0a!
#6008946
0i
0S
#6009700
1j
1T
#6500000
1-
1=
0,
0<
#6500764
1c!
1b!
#6500811
0]!
0^!
#6504291
1e!
#6504734
1d!
#6504895
0_!
#6505098
0l!
#6505475
0`!
#6505499
1f!
#6505678
0m!
#6505708
1a!
#6505904
0a!
#6505912
0g!
#6509957
0j
0T
#6510532
1k
1U
#7000000
1.
1>
0-
0=
#7000764
1h!
1i!
#7000811
0c!
0b!
#7004742
1j!
#7004902
0d!
#7004971
0e!
#7005292
1k!
#7005521
1m!
#7005665
1l!
#7005717
1q!
#7006473
1r!
#7008637
1t!
#7010574
0k
0U
#7015098
1l
1V
#7500000
1/
1?
0.
0>
#7500764
1o!
1n!
#7500811
0h!
0i!
#7504542
1p!
#7504974
0k!
#7505157
1s!
#7505288
1u!
#7505325
0t!
#7505402
0q!
#7505558
0j!
#7505731
1t!
#7505788
0m!
#7506060
1z!
#7506192
0r!
#7506380
1m!
#7508243
0t!
#7510705
1m
1W
#7514590
0l
0V
#8000000
10
1@
0/
0?
#8000764
1w!
1v!
#8000811
0o!
0n!
#8004558
1x!
#8004781
0s!
#8005064
1y!
#8005342
0{!
#8005344
0z!
#8005376
0u!
#8005387
1t!
#8005494
0p!
#8006317
0t!
#8009511
0n
0G
#8009821
0m
0W
#8500000
00
0@
#8500811
0w!
0v!
#8504797
0y!
#8505363
0x!
#8505578
1z!
#8505622
1{!
#8506181
0z!
#8509928
1n
1G
